﻿﻿া
াই
াইও
াইছি
াইছে
াইত
াইতাছস
াইতাছে
াইতাম
াইতিস
াইতে
াইতেছ
াইতেছি
াইতেছিল
াইতেছিলাম
াইতেছিলি
াইতেছিলে
াইতেছিলেন
াইতেছিস
াইতেছে
াইতেছেন
াইতেন
াইন
াইনতে
াইনি
াইব
াইবার
াইবি
াইবে
াইবো
াইবেন
াইয়া
াইয়াছ
াইয়াছি
াইয়াছিল
াইয়াছিলাম
াইয়াছিলি
াইয়াছিলে
াইয়াছিলেন
াইয়াছিস
াইয়াছে
াইয়াছেন
াইয়ো
াইল
াইলা
াইলাম
াইলি
াইলে
াইলেন
াইস
াও
াক
াকী
াকু
াকে
কে
াচ
াচি
াচ্ছ
াচ্ছি
াচ্ছিল
াচ্ছিলাম
াচ্ছিলি
াচ্ছিলুম
াচ্ছিলে
াচ্ছিলেন
াচ্ছিলেম
াচ্ছিস
াচ্ছে
াচ্ছেন
াছিস
াছে
াছেন
াটা
াটাই
াটাও
াটাকে
াটাকেও
াটি
াত
াতাম
াতি
াতিস
াতুম
াতে
াতেই
াতেও
াতেছ
াতেন
াতেম
ান
াননি
ানা
ানি
ানী
ানে
ানো
ানোর
ানো
ানোই
ানোও
ানোটা
ানোতে
ানোতেই
ানোয়
ানোর
ানোরই
ানোরও
ানোসহ
াব
াবানি
াবার
াবি
াবে
াবো
াবেই
াবেও
াবেন
াবেনই
াবো
াম
ামতে
ামি
ামী
ামো
ায়
ায়ও
ায়নি
ায়ে
ায়েছিলাম
ায়েছে
ায়ো
ার
ারই
ারও
ারি
ারী
ারু
াল
ালা
ালাম
ালি
ালী
ালু
ালুম
ালে
ালেই
ালেও
ালেন
ালেনও
ালেম
ালো
াস
ি
িআছিল
িও
িক
িকা
িছিলে
িত
িতাম
িতিস
িতে
িতেও
িতেছ
িতেছি
িতেছিল
িতেছিলাম
িতেছিলি
িতেছিলে
িতেছিলেন
িতেছিস
িতেছে
িতেছেন
িতেন
িত্র
িন
িনী
িব
িবা
িবি
িবে
িবেন
িম
ির
িমা
িলুম
িলেম
িয়া
িয়াছ
িয়াছি
িয়াছিলাম
িয়াছিলি
িয়াছিলে
িয়াছিলেন
িয়াছিস
িয়াছে
িয়াছেন
িয়ে
িয়েছি
িয়েছিল
িয়েছিলি
িয়েছিলে
িয়েছিলেন
িয়েছিস
িয়েছে
িয়েছেন
িয়েছো
িল
িলাম
িলি
িলে
িলেন
িষ্ঠ
িষ্ণু
িস
ী
ীন
ীয়
ীর
ু
ুক
ুকা
ুড
ুন
ুনি
ুনী
ুয়া
ুর
ুরি
ুরিয়া
ুরী
ুরে
ুলি
ে
েই
েও
েও
েছ
েছি
েছিল
েছিলাম
েছিলি
েছিলে
েছিলেন
েছিস
েছে
েছেন
েতে
েন
েননি
ের
েরই
েরও
েরা
েরাও
েরে
ও
ো
োর
োয়া
্য
অ
আ
আনা
আবলি
আলা
ই
ইছিলাম
ইছে
ইত
ইন
ইবা
ইবে
ইয়
ইয়া
ইলে
ইস
এ
এন
এর
এরা
এরে
ও
ং
ক
কা
কার
কারী
কি
কী
কুল
কুলের
কে
কেই
কেও
ক্যা
খানা
খানি
গ
গণ
গণে
গন
গর
গাছা
গাছি
গিরি
গুচ্ছ
গুলা
গুলি
গুলিকে
গুলিতে
গুলিন
গুলির
গুলো
গুলোও
গুলোকে
গুলোয়
গুলোতে
গুলোর
গোটা
চস
চিৎ
চে
চ্ছ
চ্ছি
চ্ছিল
চ্ছিলাম
চ্ছিলি
চ্ছিলে
চ্ছিলেন
চ্ছিস
চ্ছে
চ্ছেন
ছ
ছটা
ছস
ছি
ছিই
ছিল
ছিলাম
ছিলি
ছিলুম
ছিলে
ছিলেন
ছিলেম
ছিস
ছে
ছেই
ছেও
ছেন
ছেনই
ছেনও
ছেনটা
ছেননি
ছো
জ
জা
ট
টা
টাও
টাই
টাক
টাকে
টার
টায়
টি
টিই
টিও
টিকে
টিকেই
টিতে
টিতেও
টির
টিয়া
টুক
টুকটা
টুকু
টুকুন
টে
টেই
টো
ঠা
ড়
ড়া
ণক
ৎ
ত
তব্য
তম
তর
তা
তাও
তাছি
তাছে
তাছেন
তাম
তার
তি
তিও
তিছি
তিছেন
তিস
তুত
তুম
তে
তেই
তেও
তেছি
তেছিলাম
তেছেন
তেন
তেনা
তেম
তো
ত্ব
ত্বে
ত্বের
ত্যাছি
থা
দল
দলের
দনি
দা
দিগ
দিগকে
দিগে
দিগেতে
দিগের
দিগেরে
দিতে
দিয়া
দের
দেরই
দেরে
দেরকে
ধা
ন
নটা
না
নারে
নি
নিকর
নিচয়
নী
নীয়
নু
নের
নো
নোর
নোয়
ন্ত
পনা
পানা
পানি
পারা
পাল
পুঞ্জ
পের
ব
বও
বৎ
বতী
বন্ত
বর্গ
বা
বার
বি
বিধ
বী
বীনি
বৃন্দ
বে
বেই
বেও
বেন
বেনই
বো
মণ্ডলী
মন্ডলি
মালা
মালার
মালায়
মি
মু
মো
যূথ
য়
য়ই
য়া
য়ে
য়েছিলাম
য়ো
র
রও
রই
রা
রাই
রাও
রাওতো
রাজ
রাজি
রাট
রাশি
রি
রে
ল
লও
লা
লাম
লামই
লি
লিয়া
লুম
লে
লেই
লেও
লেন
লেনই
লেম
লো
শ
স
সই
সকল
সদ
সব
সমুদয়
সমুহ
সমুহের
সমূহ
সমূহের
সহ
সাৎ
হ
হতে
হারা
এর
সহ
টি
ত্ব
মণ্ডল
টে
সে
ুর
রা
ূক
পুঞ্জ
রে
না
মণ্ডলী
াইত
ীয়
ুি
দিগে
ূয়া
িরা
ামি
ূর
াকু
েরা
দেরে
বিহীন
গ্রাম
আনা
আনি
ন্ত
সমূহ
বাজি
কুল
ানো
গাছি
গাছা
লা
নবিশ
নিচয়
গুলি
গুলা
গুলো
মহল
চি
বর্গ
চা
ারি
ারা
ারু
বাজ
ানি
বান
ানী
ূরি
জাল
আলা
লোক
মূলক
খানি
গণে
খোর
খানা
সুদ্ধ
বন্দ
চয়
ই
ভাবে
াই
গুচ্ছ
কিয়া
ছিল
জন
তর
এ
মালা
গুলোতেই
ও
াও
গুলোর
গিরি
স্তান
তি
তা
নিকর
াচ
ট
তে
োয় ান
ান
ালূ
দিগের
াম
ার
নীন
িক
দিগেতে
দিগকে
রাজি
া
ি
রাজী
ী
েন
াা
ূ
িত
ে
ের
য়ে
বৃন্দ
দের
ো
দল
সই
মি
ওয়ালা
কে
রাশি
কুঞ্জ
বলি
িা
বলী
য়
পতি
ায়
িয়ে
নীয়
পারা
গণ
গুলিতে
শ্রেণী
শ্রেণি
দাম
সব
ুক
দান
গর
েয়
দিগ
সহি
মান
দার
টা